\relax 
\citation{moskal2013tof}
\citation{knoll2010radiation}
\citation{pike2009pet}
\citation{hoffman1986positron}
\@writefile{toc}{\contentsline {subsection}{\numberline {\unhbox \voidb@x \hbox {-A}}Keywords}{1}}
\@writefile{toc}{\contentsline {section}{\numberline {I}Introduction}{1}}
\@writefile{toc}{\contentsline {section}{\numberline {II}The conventional PET}{1}}
\citation{knoll2010radiation}
\citation{butt2014development}
\citation{giaz2012properties}
\citation{shah2003labr}
\citation{de2008advances}
\citation{drozdowski2007effect}
\citation{van2002inorganic}
\citation{higgins2006bridgman}
\citation{schaart2010labr3}
\citation{peloso2012development}
\citation{keller2013attenuation}
\citation{salomon2011simultaneous}
\citation{Rogers2004383}
\citation{jan2004gate}
\@writefile{toc}{\contentsline {section}{\numberline {III}The Scintillation detector}{2}}
\@writefile{toc}{\contentsline {subsection}{\numberline {\unhbox \voidb@x \hbox {III-A}}Scintillation Characteristics of $LaBr_3: Ce$}{2}}
\@writefile{toc}{\contentsline {subsection}{\numberline {\unhbox \voidb@x \hbox {III-B}} The Silicon layers detector}{2}}
\@writefile{toc}{\contentsline {section}{\numberline {IV}Methodology}{2}}
\citation{assie2004monte}
\citation{jan2004gate}
\citation{saha2010basics}
\newlabel{fig:sim}{{IV}{3}}
\@writefile{lof}{\contentsline {figure}{\numberline {1}{\ignorespaces  Illustrate the basic construction of the DD-PET which made of two silicon ($Si$) detectors on each side, each of them consists of (15 x 15 ) pixel elements, each pixel is (2 mm x 2 mm) , and the spacing between the pixels is 0.1 mm, and two monolithic $ LaBr3:Ce$ scintillation material.}}{3}}
\newlabel{fig:sim}{{1}{3}}
\@writefile{toc}{\contentsline {subsection}{\numberline {\unhbox \voidb@x \hbox {IV-A}}DD-PET Detector SET UP}{3}}
\@writefile{toc}{\contentsline {subsection}{\numberline {\unhbox \voidb@x \hbox {IV-B}}DD-PET Sensitivity analysis}{3}}
\@writefile{lof}{\contentsline {figure}{\numberline {2}{\ignorespaces  Illustrate the DD-PET Prototype, which made of two parallel slabs of monolithic $LaBr_3:Ce$ scintillation material, four silicon strip detectors, and silicon photomultipliers (SiPMs). }}{3}}
\newlabel{fig:setup}{{2}{3}}
\@writefile{toc}{\contentsline {subsection}{\numberline {\unhbox \voidb@x \hbox {IV-C}}DD-PET Spatial resolution analysis}{3}}
\citation{hoffman1986positron}
\citation{knoll2010radiation}
\citation{yoon2011simulation}
\citation{0031-9155-49-12-006}
\citation{4346729}
\bibdata{DD-PET}
\bibcite{assie2004monte}{1}
\@writefile{toc}{\contentsline {section}{\numberline {V}Discussion }{4}}
\@writefile{lof}{\contentsline {figure}{\numberline {3}{\ignorespaces  Illustrate the DD-PET Prototype basic setup, with single scatter event. The gamma ($\gamma $) photon source position can be calculated. }}{4}}
\newlabel{fig:prototype}{{3}{4}}
\newlabel{eqn:compton}{{1}{4}}
\@writefile{toc}{\contentsline {section}{\numberline {VI}Conclusion}{4}}
\@writefile{toc}{\contentsline {subsubsection}{\numberline {\unhbox \voidb@x \hbox {VI-}1}Future prospects for the DD-PET imaging system}{4}}
\@writefile{toc}{\contentsline {section}{References}{4}}
\bibcite{0031-9155-49-12-006}{2}
\bibcite{butt2014development}{3}
\bibcite{de2008advances}{4}
\bibcite{drozdowski2007effect}{5}
\bibcite{giaz2012properties}{6}
\bibcite{higgins2006bridgman}{7}
\bibcite{hoffman1986positron}{8}
\bibcite{jan2004gate}{9}
\bibcite{keller2013attenuation}{10}
\bibcite{knoll2010radiation}{11}
\bibcite{moskal2013tof}{12}
\bibcite{4346729}{13}
\bibcite{peloso2012development}{14}
\bibcite{pike2009pet}{15}
\bibcite{Rogers2004383}{16}
\bibcite{saha2010basics}{17}
\bibcite{salomon2011simultaneous}{18}
\bibcite{schaart2010labr3}{19}
\bibcite{shah2003labr}{20}
\bibcite{van2002inorganic}{21}
\bibcite{van2002scintillation}{22}
\bibcite{yoon2011simulation}{23}
\bibstyle{plain}
\citation{*}
